<?xml version="1.0" encoding="UTF-8"?>
<svg width="260px" height="322px" viewBox="0 0 260 322" version="1.1" xmlns="http://www.w3.org/2000/svg" xmlns:xlink="http://www.w3.org/1999/xlink">
    <!-- Generator: Sketch 49.3 (51167) - http://www.bohemiancoding.com/sketch -->
    <title>Oval 3</title>
    <desc>Created with Sketch.</desc>
    <defs></defs>
    <g id="Instagram" stroke="none" stroke-width="1" fill="none" fill-rule="evenodd">
        <path d="M168.715077,316.702281 C223.391267,316.702281 267.715077,272.378472 267.715077,217.702281 C267.715077,163.026091 245.658708,13.8931213 153.354191,2.65985337 C61.0496733,-8.57341455 28.3501027,55.226183 15.5162851,189.046261 C2.68246748,322.866339 114.038886,316.702281 168.715077,316.702281 Z" id="Oval-3" fill="#FDD1F2" transform="translate(141.105101, 159.071287) rotate(-345.000000) translate(-141.105101, -159.071287) "></path>
    </g>
</svg>